{
    "$schema": "https://schema.management.azure.com/schemas/2015-01-01/deploymentParameters.json#",
    "contentVersion": "1.0.0.0",
    "parameters": {
        "subscriptionId": {
            "value": "8d508382-d4c5-4ffb-86ad-5077effa09c2"
        },
        "name": {
            "value": "dotnet-25"
        },
        "location": {
            "value": "Canada East"
        },
        "hostingPlanName": {
            "value": "ASP-arm-8907"
        },
        "serverFarmResourceGroup": {
            "value": "arm"
        },
        "alwaysOn": {
            "value": false
        },
        "sku": {
            "value": "Free"
        },
        "skuCode": {
            "value": "F1"
        },
        "workerSize": {
            "value": "0"
        },
        "workerSizeId": {
            "value": "0"
        },
        "numberOfWorkers": {
            "value": "1"
        },
        "currentStack": {
            "value": "dotnetcore"
        },
        "phpVersion": {
            "value": "OFF"
        },
        "errorLink": {
            "value": "https://dotnet-25.scm.azurewebsites.net/detectors?type=tools&name=eventviewer"
        }
    }
}